{
  "project_info": {
    "project_number": "265961694803",
    "firebase_url": "https://fire-8f003.firebaseio.com",
    "project_id": "fire-8f003",
    "storage_bucket": "fire-8f003.appspot.com"
  },
  "client": [
    {
      "client_info": {
        "mobilesdk_app_id": "1:265961694803:android:3ba27b39d667639a",
        "android_client_info": {
          "package_name": "com.fire"
        }
      },
      "oauth_client": [
        {
          "client_id": "265961694803-v32hnin31dp6bjd0c3sh6hanh7jrr9e1.apps.googleusercontent.com",
          "client_type": 1,
          "android_info": {
            "package_name": "com.fire",
            "certificate_hash": "5e8f16062ea3cd2c4a0d547876baa6f38cabf625"
          }
        },
        {
          "client_id": "265961694803-rj8pcqesnpgbi89487fmcvpcj3gpvsn0.apps.googleusercontent.com",
          "client_type": 3
        }
      ],
      "api_key": [
        {
          "current_key": "AIzaSyCKW8Tc49swnG8O72WTNjPZk8zOZ_SaHqM"
        }
      ],
      "services": {
        "appinvite_service": {
          "other_platform_oauth_client": [
            {
              "client_id": "265961694803-rj8pcqesnpgbi89487fmcvpcj3gpvsn0.apps.googleusercontent.com",
              "client_type": 3
            }
          ]
        }
      }
    }
  ],
  "configuration_version": "1"
}
